{
  "id": 1,
  "bias": 4.5,
  "checked": false,
  "factor": 1.0e+7,
  "genre": null,
  "title": "How much wood would a woodchuck chuck?",
  "elements": [
    3.14,
    1024,
    "Peter Piper"
  ],
  "attributes": {
    "id": 1,
    "bias": 4.5,
    "title": "How much wood would a woodchuck chuck?",
    "elements": [
      3.14,
      1024,
      {
        "id": 1,
        "bias": 4.5,
        "title": "How much wood would a woodchuck chuck?",
        "elements": [
          3.14,
          1024,
          "Peter Piper"
        ]
      }
    ]
  }
}
